This file contains any messages produced by compilers while
running configure, to aid debugging if configure makes a mistake.

It was created by configure, which was
generated by GNU Autoconf 2.65.  Invocation command line was

  $ ./configure 

## --------- ##
## Platform. ##
## --------- ##

hostname = abhineet-VirtualBox
uname -m = x86_64
uname -r = 3.13.0-39-generic
uname -s = Linux
uname -v = #66-Ubuntu SMP Tue Oct 28 13:30:27 UTC 2014

/usr/bin/uname -p = unknown
/bin/uname -X     = unknown

/bin/arch              = unknown
/usr/bin/arch -k       = unknown
/usr/convex/getsysinfo = unknown
/usr/bin/hostinfo      = unknown
/bin/machine           = unknown
/usr/bin/oslevel       = unknown
/bin/universe          = unknown

PATH: /usr/local/sbin
PATH: /usr/local/bin
PATH: /usr/sbin
PATH: /usr/bin
PATH: /sbin
PATH: /bin
PATH: /usr/games
PATH: /usr/local/games
PATH: /usr/local/MATLAB/MATLAB_Production_Server/R2013a/bin


## ----------- ##
## Core tests. ##
## ----------- ##

configure:2190: checking for a BSD-compatible install
configure:2258: result: /usr/bin/install -c
configure:2269: checking whether make sets $(MAKE)
configure:2291: result: yes
configure:2349: checking for gcc
configure:2365: found /usr/bin/gcc
configure:2376: result: gcc
configure:2605: checking for C compiler version
configure:2614: gcc --version >&5
gcc (Ubuntu 4.8.2-19ubuntu1) 4.8.2
Copyright (C) 2013 Free Software Foundation, Inc.
This is free software; see the source for copying conditions.  There is NO
warranty; not even for MERCHANTABILITY or FITNESS FOR A PARTICULAR PURPOSE.

configure:2625: $? = 0
configure:2614: gcc -v >&5
Using built-in specs.
COLLECT_GCC=gcc
COLLECT_LTO_WRAPPER=/usr/lib/gcc/x86_64-linux-gnu/4.8/lto-wrapper
Target: x86_64-linux-gnu
Configured with: ../src/configure -v --with-pkgversion='Ubuntu 4.8.2-19ubuntu1' --with-bugurl=file:///usr/share/doc/gcc-4.8/README.Bugs --enable-languages=c,c++,java,go,d,fortran,objc,obj-c++ --prefix=/usr --program-suffix=-4.8 --enable-shared --enable-linker-build-id --libexecdir=/usr/lib --without-included-gettext --enable-threads=posix --with-gxx-include-dir=/usr/include/c++/4.8 --libdir=/usr/lib --enable-nls --with-sysroot=/ --enable-clocale=gnu --enable-libstdcxx-debug --enable-libstdcxx-time=yes --enable-gnu-unique-object --disable-libmudflap --enable-plugin --with-system-zlib --disable-browser-plugin --enable-java-awt=gtk --enable-gtk-cairo --with-java-home=/usr/lib/jvm/java-1.5.0-gcj-4.8-amd64/jre --enable-java-home --with-jvm-root-dir=/usr/lib/jvm/java-1.5.0-gcj-4.8-amd64 --with-jvm-jar-dir=/usr/lib/jvm-exports/java-1.5.0-gcj-4.8-amd64 --with-arch-directory=amd64 --with-ecj-jar=/usr/share/java/eclipse-ecj.jar --enable-objc-gc --enable-multiarch --disable-werror --with-arch-32=i686 --with-abi=m64 --with-multilib-list=m32,m64,mx32 --with-tune=generic --enable-checking=release --build=x86_64-linux-gnu --host=x86_64-linux-gnu --target=x86_64-linux-gnu
Thread model: posix
gcc version 4.8.2 (Ubuntu 4.8.2-19ubuntu1) 
configure:2625: $? = 0
configure:2614: gcc -V >&5
gcc: error: unrecognized command line option '-V'
gcc: fatal error: no input files
compilation terminated.
configure:2625: $? = 4
configure:2614: gcc -qversion >&5
gcc: error: unrecognized command line option '-qversion'
gcc: fatal error: no input files
compilation terminated.
configure:2625: $? = 4
configure:2645: checking whether the C compiler works
configure:2667: gcc    conftest.c  >&5
configure:2671: $? = 0
configure:2720: result: yes
configure:2723: checking for C compiler default output file name
configure:2725: result: a.out
configure:2731: checking for suffix of executables
configure:2738: gcc -o conftest    conftest.c  >&5
configure:2742: $? = 0
configure:2764: result: 
configure:2786: checking whether we are cross compiling
configure:2794: gcc -o conftest    conftest.c  >&5
configure:2798: $? = 0
configure:2805: ./conftest
configure:2809: $? = 0
configure:2824: result: no
configure:2829: checking for suffix of object files
configure:2851: gcc -c   conftest.c >&5
configure:2855: $? = 0
configure:2876: result: o
configure:2880: checking whether we are using the GNU C compiler
configure:2899: gcc -c   conftest.c >&5
configure:2899: $? = 0
configure:2908: result: yes
configure:2917: checking whether gcc accepts -g
configure:2937: gcc -c -g  conftest.c >&5
configure:2937: $? = 0
configure:2978: result: yes
configure:2995: checking for gcc option to accept ISO C89
configure:3059: gcc  -c -g -O2  conftest.c >&5
configure:3059: $? = 0
configure:3072: result: none needed
configure:3098: checking how to run the C preprocessor
configure:3129: gcc -E  conftest.c
configure:3129: $? = 0
configure:3143: gcc -E  conftest.c
conftest.c:9:28: fatal error: ac_nonexistent.h: No such file or directory
 #include <ac_nonexistent.h>
                            ^
compilation terminated.
configure:3143: $? = 1
configure: failed program was:
| /* confdefs.h */
| #define PACKAGE_NAME ""
| #define PACKAGE_TARNAME ""
| #define PACKAGE_VERSION ""
| #define PACKAGE_STRING ""
| #define PACKAGE_BUGREPORT ""
| #define PACKAGE_URL ""
| /* end confdefs.h.  */
| #include <ac_nonexistent.h>
configure:3168: result: gcc -E
configure:3188: gcc -E  conftest.c
configure:3188: $? = 0
configure:3202: gcc -E  conftest.c
conftest.c:9:28: fatal error: ac_nonexistent.h: No such file or directory
 #include <ac_nonexistent.h>
                            ^
compilation terminated.
configure:3202: $? = 1
configure: failed program was:
| /* confdefs.h */
| #define PACKAGE_NAME ""
| #define PACKAGE_TARNAME ""
| #define PACKAGE_VERSION ""
| #define PACKAGE_STRING ""
| #define PACKAGE_BUGREPORT ""
| #define PACKAGE_URL ""
| /* end confdefs.h.  */
| #include <ac_nonexistent.h>
configure:3231: checking for grep that handles long lines and -e
configure:3289: result: /bin/grep
configure:3294: checking for egrep
configure:3356: result: /bin/grep -E
configure:3361: checking for ANSI C header files
configure:3381: gcc -c -g -O2  conftest.c >&5
configure:3381: $? = 0
configure:3454: gcc -o conftest -g -O2   conftest.c  >&5
configure:3454: $? = 0
configure:3454: ./conftest
configure:3454: $? = 0
configure:3465: result: yes
configure:3478: checking for sys/types.h
configure:3478: gcc -c -g -O2  conftest.c >&5
configure:3478: $? = 0
configure:3478: result: yes
configure:3478: checking for sys/stat.h
configure:3478: gcc -c -g -O2  conftest.c >&5
configure:3478: $? = 0
configure:3478: result: yes
configure:3478: checking for stdlib.h
configure:3478: gcc -c -g -O2  conftest.c >&5
configure:3478: $? = 0
configure:3478: result: yes
configure:3478: checking for string.h
configure:3478: gcc -c -g -O2  conftest.c >&5
configure:3478: $? = 0
configure:3478: result: yes
configure:3478: checking for memory.h
configure:3478: gcc -c -g -O2  conftest.c >&5
configure:3478: $? = 0
configure:3478: result: yes
configure:3478: checking for strings.h
configure:3478: gcc -c -g -O2  conftest.c >&5
configure:3478: $? = 0
configure:3478: result: yes
configure:3478: checking for inttypes.h
configure:3478: gcc -c -g -O2  conftest.c >&5
configure:3478: $? = 0
configure:3478: result: yes
configure:3478: checking for stdint.h
configure:3478: gcc -c -g -O2  conftest.c >&5
configure:3478: $? = 0
configure:3478: result: yes
configure:3478: checking for unistd.h
configure:3478: gcc -c -g -O2  conftest.c >&5
configure:3478: $? = 0
configure:3478: result: yes
configure:3497: checking for stdlib.h
configure:3497: result: yes
configure:3497: checking for unistd.h
configure:3497: result: yes
configure:3497: checking for sys/param.h
configure:3497: gcc -c -g -O2  conftest.c >&5
configure:3497: $? = 0
configure:3497: result: yes
configure:3518: checking for getpagesize
configure:3518: gcc -o conftest -g -O2   conftest.c  >&5
configure:3518: $? = 0
configure:3518: result: yes
configure:3527: checking for working mmap
configure:3674: gcc -o conftest -g -O2   conftest.c  >&5
configure:3674: $? = 0
configure:3674: ./conftest
configure:3674: $? = 0
configure:3684: result: yes
configure:3695: checking for gettimeofday
configure:3695: gcc -o conftest -g -O2   conftest.c  >&5
configure:3695: $? = 0
configure:3695: result: yes
configure:3707: checking for X
configure:3815: gcc -E  conftest.c
configure:3815: $? = 0
configure:3846: gcc -o conftest -g -O2   conftest.c -lX11  >&5
configure:3846: $? = 0
configure:3896: result: libraries , headers 
configure:3995: gcc -o conftest -g -O2   conftest.c   -lX11 >&5
configure:3995: $? = 0
configure:4093: checking for gethostbyname
configure:4093: gcc -o conftest -g -O2   conftest.c  >&5
configure:4093: $? = 0
configure:4093: result: yes
configure:4190: checking for connect
configure:4190: gcc -o conftest -g -O2   conftest.c  >&5
configure:4190: $? = 0
configure:4190: result: yes
configure:4239: checking for remove
configure:4239: gcc -o conftest -g -O2   conftest.c  >&5
configure:4239: $? = 0
configure:4239: result: yes
configure:4288: checking for shmat
configure:4288: gcc -o conftest -g -O2   conftest.c  >&5
configure:4288: $? = 0
configure:4288: result: yes
configure:4346: checking for IceConnectionNumber in -lICE
configure:4371: gcc -o conftest -g -O2   conftest.c -lICE   >&5
configure:4371: $? = 0
configure:4380: result: yes
configure:4390: checking for ANSI C header files
configure:4494: result: yes
configure:4505: checking fcntl.h usability
configure:4505: gcc -c -g -O2  conftest.c >&5
configure:4505: $? = 0
configure:4505: result: yes
configure:4505: checking fcntl.h presence
configure:4505: gcc -E  conftest.c
configure:4505: $? = 0
configure:4505: result: yes
configure:4505: checking for fcntl.h
configure:4505: result: yes
configure:4505: checking sys/ioctl.h usability
configure:4505: gcc -c -g -O2  conftest.c >&5
configure:4505: $? = 0
configure:4505: result: yes
configure:4505: checking sys/ioctl.h presence
configure:4505: gcc -E  conftest.c
configure:4505: $? = 0
configure:4505: result: yes
configure:4505: checking for sys/ioctl.h
configure:4505: result: yes
configure:4505: checking sys/time.h usability
configure:4505: gcc -c -g -O2  conftest.c >&5
configure:4505: $? = 0
configure:4505: result: yes
configure:4505: checking sys/time.h presence
configure:4505: gcc -E  conftest.c
configure:4505: $? = 0
configure:4505: result: yes
configure:4505: checking for sys/time.h
configure:4505: result: yes
configure:4505: checking for unistd.h
configure:4505: result: yes
configure:4552: gcc -E  conftest.c
configure:4552: $? = 0
configure:4566: checking for an ANSI C-conforming const
configure:4631: gcc -c -g -O2  conftest.c >&5
configure:4631: $? = 0
configure:4638: result: yes
configure:4646: checking for inline
configure:4662: gcc -c -g -O2  conftest.c >&5
configure:4662: $? = 0
configure:4670: result: inline
configure:4688: checking for off_t
configure:4688: gcc -c -g -O2  conftest.c >&5
configure:4688: $? = 0
configure:4688: gcc -c -g -O2  conftest.c >&5
conftest.c: In function 'main':
conftest.c:68:20: error: expected expression before ')' token
 if (sizeof ((off_t)))
                    ^
configure:4688: $? = 1
configure: failed program was:
| /* confdefs.h */
| #define PACKAGE_NAME ""
| #define PACKAGE_TARNAME ""
| #define PACKAGE_VERSION ""
| #define PACKAGE_STRING ""
| #define PACKAGE_BUGREPORT ""
| #define PACKAGE_URL ""
| #define STDC_HEADERS 1
| #define HAVE_SYS_TYPES_H 1
| #define HAVE_SYS_STAT_H 1
| #define HAVE_STDLIB_H 1
| #define HAVE_STRING_H 1
| #define HAVE_MEMORY_H 1
| #define HAVE_STRINGS_H 1
| #define HAVE_INTTYPES_H 1
| #define HAVE_STDINT_H 1
| #define HAVE_UNISTD_H 1
| #define HAVE_STDLIB_H 1
| #define HAVE_UNISTD_H 1
| #define HAVE_SYS_PARAM_H 1
| #define HAVE_GETPAGESIZE 1
| #define HAVE_MMAP 1
| #define HAVE_GETTIMEOFDAY 1
| #define STDC_HEADERS 1
| #define HAVE_FCNTL_H 1
| #define HAVE_SYS_IOCTL_H 1
| #define HAVE_SYS_TIME_H 1
| #define HAVE_UNISTD_H 1
| #define HAVE_DV 1
| #define HAVE_BTTV 1
| /* end confdefs.h.  */
| #include <stdio.h>
| #ifdef HAVE_SYS_TYPES_H
| # include <sys/types.h>
| #endif
| #ifdef HAVE_SYS_STAT_H
| # include <sys/stat.h>
| #endif
| #ifdef STDC_HEADERS
| # include <stdlib.h>
| # include <stddef.h>
| #else
| # ifdef HAVE_STDLIB_H
| #  include <stdlib.h>
| # endif
| #endif
| #ifdef HAVE_STRING_H
| # if !defined STDC_HEADERS && defined HAVE_MEMORY_H
| #  include <memory.h>
| # endif
| # include <string.h>
| #endif
| #ifdef HAVE_STRINGS_H
| # include <strings.h>
| #endif
| #ifdef HAVE_INTTYPES_H
| # include <inttypes.h>
| #endif
| #ifdef HAVE_STDINT_H
| # include <stdint.h>
| #endif
| #ifdef HAVE_UNISTD_H
| # include <unistd.h>
| #endif
| int
| main ()
| {
| if (sizeof ((off_t)))
| 	    return 0;
|   ;
|   return 0;
| }
configure:4688: result: yes
configure:4699: checking for size_t
configure:4699: gcc -c -g -O2  conftest.c >&5
configure:4699: $? = 0
configure:4699: gcc -c -g -O2  conftest.c >&5
conftest.c: In function 'main':
conftest.c:68:21: error: expected expression before ')' token
 if (sizeof ((size_t)))
                     ^
configure:4699: $? = 1
configure: failed program was:
| /* confdefs.h */
| #define PACKAGE_NAME ""
| #define PACKAGE_TARNAME ""
| #define PACKAGE_VERSION ""
| #define PACKAGE_STRING ""
| #define PACKAGE_BUGREPORT ""
| #define PACKAGE_URL ""
| #define STDC_HEADERS 1
| #define HAVE_SYS_TYPES_H 1
| #define HAVE_SYS_STAT_H 1
| #define HAVE_STDLIB_H 1
| #define HAVE_STRING_H 1
| #define HAVE_MEMORY_H 1
| #define HAVE_STRINGS_H 1
| #define HAVE_INTTYPES_H 1
| #define HAVE_STDINT_H 1
| #define HAVE_UNISTD_H 1
| #define HAVE_STDLIB_H 1
| #define HAVE_UNISTD_H 1
| #define HAVE_SYS_PARAM_H 1
| #define HAVE_GETPAGESIZE 1
| #define HAVE_MMAP 1
| #define HAVE_GETTIMEOFDAY 1
| #define STDC_HEADERS 1
| #define HAVE_FCNTL_H 1
| #define HAVE_SYS_IOCTL_H 1
| #define HAVE_SYS_TIME_H 1
| #define HAVE_UNISTD_H 1
| #define HAVE_DV 1
| #define HAVE_BTTV 1
| /* end confdefs.h.  */
| #include <stdio.h>
| #ifdef HAVE_SYS_TYPES_H
| # include <sys/types.h>
| #endif
| #ifdef HAVE_SYS_STAT_H
| # include <sys/stat.h>
| #endif
| #ifdef STDC_HEADERS
| # include <stdlib.h>
| # include <stddef.h>
| #else
| # ifdef HAVE_STDLIB_H
| #  include <stdlib.h>
| # endif
| #endif
| #ifdef HAVE_STRING_H
| # if !defined STDC_HEADERS && defined HAVE_MEMORY_H
| #  include <memory.h>
| # endif
| # include <string.h>
| #endif
| #ifdef HAVE_STRINGS_H
| # include <strings.h>
| #endif
| #ifdef HAVE_INTTYPES_H
| # include <inttypes.h>
| #endif
| #ifdef HAVE_STDINT_H
| # include <stdint.h>
| #endif
| #ifdef HAVE_UNISTD_H
| # include <unistd.h>
| #endif
| int
| main ()
| {
| if (sizeof ((size_t)))
| 	    return 0;
|   ;
|   return 0;
| }
configure:4699: result: yes
configure:4710: checking whether time.h and sys/time.h may both be included
configure:4730: gcc -c -g -O2  conftest.c >&5
configure:4730: $? = 0
configure:4737: result: yes
configure:4750: gcc -E  conftest.c
configure:4750: $? = 0
configure:4756: checking for "/dev/video1394/0"
configure:4769: result: no
configure:4776: checking for "/usr/include/dc1394/control.h"
configure:4789: result: yes
configure:4803: gcc -E  conftest.c
configure:4803: $? = 0
configure:4822: checking for pthread_create in -lpthread
configure:4847: gcc -o conftest -g -O2   conftest.c -lpthread   >&5
configure:4847: $? = 0
configure:4856: result: yes
configure:4863: checking for png_get_copyright in -lpng
configure:4888: gcc -o conftest -g -O2   conftest.c -lpng   >&5
configure:4888: $? = 0
configure:4897: result: yes
configure:4908: checking for XOpenDisplay in -lX11
configure:4933: gcc -o conftest -g -O2   conftest.c -lX11   -lpng  >&5
configure:4933: $? = 0
configure:4942: result: yes
configure:4953: checking for XShmAttach in -lXext
configure:4978: gcc -o conftest -g -O2   conftest.c -lXext   -lSM -lICE -lX11  -lX11 -lpng  >&5
configure:4978: $? = 0
configure:4987: result: yes
configure:4998: checking for XF86DGAQueryExtension in -lXxf86dga
configure:5023: gcc -o conftest -g -O2   conftest.c -lXxf86dga   -lSM -lICE -lXext -lX11  -lXext -lX11 -lpng  >&5
/usr/bin/ld: cannot find -lXxf86dga
collect2: error: ld returned 1 exit status
configure:5023: $? = 1
configure: failed program was:
| /* confdefs.h */
| #define PACKAGE_NAME ""
| #define PACKAGE_TARNAME ""
| #define PACKAGE_VERSION ""
| #define PACKAGE_STRING ""
| #define PACKAGE_BUGREPORT ""
| #define PACKAGE_URL ""
| #define STDC_HEADERS 1
| #define HAVE_SYS_TYPES_H 1
| #define HAVE_SYS_STAT_H 1
| #define HAVE_STDLIB_H 1
| #define HAVE_STRING_H 1
| #define HAVE_MEMORY_H 1
| #define HAVE_STRINGS_H 1
| #define HAVE_INTTYPES_H 1
| #define HAVE_STDINT_H 1
| #define HAVE_UNISTD_H 1
| #define HAVE_STDLIB_H 1
| #define HAVE_UNISTD_H 1
| #define HAVE_SYS_PARAM_H 1
| #define HAVE_GETPAGESIZE 1
| #define HAVE_MMAP 1
| #define HAVE_GETTIMEOFDAY 1
| #define STDC_HEADERS 1
| #define HAVE_FCNTL_H 1
| #define HAVE_SYS_IOCTL_H 1
| #define HAVE_SYS_TIME_H 1
| #define HAVE_UNISTD_H 1
| #define HAVE_DV 1
| #define HAVE_BTTV 1
| #define TIME_WITH_SYS_TIME 1
| #define HAVE_REMAP 1
| #define HAVE_VIDEO1394_NEW 1
| #define HAVE_IPP 1
| #define HAVE_LIBPTHREAD 1
| #define HAVE_LIBPNG 1
| #define HAVE_LIBX11 1
| #define HAVE_LIBXEXT 1
| /* end confdefs.h.  */
| 
| /* Override any GCC internal prototype to avoid an error.
|    Use char because int might match the return type of a GCC
|    builtin and then its argument prototype would still apply.  */
| #ifdef __cplusplus
| extern "C"
| #endif
| char XF86DGAQueryExtension ();
| int
| main ()
| {
| return XF86DGAQueryExtension ();
|   ;
|   return 0;
| }
configure:5032: result: no
configure:5043: checking for XF86VidModeQueryExtension in -lXxf86vm
configure:5068: gcc -o conftest -g -O2   conftest.c -lXxf86vm   -lSM -lICE -lXext -lX11  -lXext -lX11 -lpng  >&5
configure:5068: $? = 0
configure:5077: result: yes
configure:5194: creating ./config.status

## ---------------------- ##
## Running config.status. ##
## ---------------------- ##

This file was extended by config.status, which was
generated by GNU Autoconf 2.65.  Invocation command line was

  CONFIG_FILES    = 
  CONFIG_HEADERS  = 
  CONFIG_LINKS    = 
  CONFIG_COMMANDS = 
  $ ./config.status 

on abhineet-VirtualBox

config.status:896: creating src/Devices/Makefile
config.status:896: creating include/Makefile
config.status:896: creating src/Consoles/Makefile
config.status:896: creating src/Images/Makefile
config.status:896: creating src/Images/Test/Makefile
config.status:896: creating src/Tools/Test/Makefile
config.status:896: creating src/Tools/Makefile
config.status:896: creating src/Tracking/Makefile
config.status:896: creating src/Tracking/Blobs/Makefile
config.status:896: creating src/Tracking/Edges/Makefile
config.status:896: creating src/drivers/tiff-v3.5.5/Makefile
config.status:896: creating src/drivers/jpeg-6b/Makefile
config.status:896: creating src/drivers/libdv/Makefile
config.status:896: creating src/drivers/Makefile
config.status:896: creating src/Examples/Makefile
config.status:896: creating Makefile
config.status:896: creating src/Examples/pong/Makefile
config.status:896: creating src/Devices/matlab/Makefile
config.status:896: creating src/Examples/pong2/Makefile
config.status:896: creating src/Examples/gesture/Makefile
config.status:896: creating src/Examples/xcalc/Makefile
config.status:896: creating src/Examples/xgest/Makefile
config.status:896: creating src/Examples/testing/Makefile
config.status:896: creating src/Examples/Itertest/Makefile
config.status:896: creating src/Examples/main2/Makefile
config.status:896: creating src/Examples/redres/Makefile
config.status:896: creating src/Examples/filter/Makefile
config.status:896: creating src/Examples/transform/Makefile
config.status:896: creating src/Examples/showlive/Makefile
config.status:896: creating src/Examples/showdv/Makefile
config.status:896: creating src/Examples/showdig/Makefile
config.status:896: creating src/Examples/showdisp/Makefile
config.status:896: creating src/Examples/imgIOTest/Makefile
config.status:896: creating src/Examples/xman/Makefile
config.status:896: creating src/Consoles/Test/Makefile
config.status:896: creating src/Segmentation/Makefile
config.status:896: creating src/Segmentation/Test/Makefile
config.status:896: creating src/Examples/tracking/Makefile
config.status:896: creating src/Examples/warp/Makefile
config.status:896: creating src/Examples/play_avi/Makefile
config.status:896: creating src/Examples/show_v4l/Makefile
config.status:896: creating src/Examples/stream_stereo/Makefile
config.status:896: creating src/Examples/stream_stereo_color/Makefile
config.status:896: creating include/config.h
config.status:1062: include/config.h is unchanged

## ---------------- ##
## Cache variables. ##
## ---------------- ##

ac_cv_c_compiler_gnu=yes
ac_cv_c_const=yes
ac_cv_c_inline=inline
ac_cv_env_CC_set=
ac_cv_env_CC_value=
ac_cv_env_CFLAGS_set=
ac_cv_env_CFLAGS_value=
ac_cv_env_CPPFLAGS_set=
ac_cv_env_CPPFLAGS_value=
ac_cv_env_CPP_set=
ac_cv_env_CPP_value=
ac_cv_env_LDFLAGS_set=
ac_cv_env_LDFLAGS_value=
ac_cv_env_LIBS_set=
ac_cv_env_LIBS_value=
ac_cv_env_XMKMF_set=
ac_cv_env_XMKMF_value=
ac_cv_env_build_alias_set=
ac_cv_env_build_alias_value=
ac_cv_env_host_alias_set=
ac_cv_env_host_alias_value=
ac_cv_env_target_alias_set=
ac_cv_env_target_alias_value=
ac_cv_file___dev_video1394_0_=no
ac_cv_file___usr_include_dc1394_control_h_=yes
ac_cv_func_connect=yes
ac_cv_func_gethostbyname=yes
ac_cv_func_getpagesize=yes
ac_cv_func_gettimeofday=yes
ac_cv_func_mmap_fixed_mapped=yes
ac_cv_func_remove=yes
ac_cv_func_shmat=yes
ac_cv_have_x='have_x=yes	ac_x_includes='\'''\''	ac_x_libraries='\'''\'''
ac_cv_header_fcntl_h=yes
ac_cv_header_inttypes_h=yes
ac_cv_header_memory_h=yes
ac_cv_header_stdc=yes
ac_cv_header_stdint_h=yes
ac_cv_header_stdlib_h=yes
ac_cv_header_string_h=yes
ac_cv_header_strings_h=yes
ac_cv_header_sys_ioctl_h=yes
ac_cv_header_sys_param_h=yes
ac_cv_header_sys_stat_h=yes
ac_cv_header_sys_time_h=yes
ac_cv_header_sys_types_h=yes
ac_cv_header_time=yes
ac_cv_header_unistd_h=yes
ac_cv_lib_ICE_IceConnectionNumber=yes
ac_cv_lib_X11_XOpenDisplay=yes
ac_cv_lib_Xext_XShmAttach=yes
ac_cv_lib_Xxf86dga_XF86DGAQueryExtension=no
ac_cv_lib_Xxf86vm_XF86VidModeQueryExtension=yes
ac_cv_lib_png_png_get_copyright=yes
ac_cv_lib_pthread_pthread_create=yes
ac_cv_objext=o
ac_cv_path_EGREP='/bin/grep -E'
ac_cv_path_GREP=/bin/grep
ac_cv_path_install='/usr/bin/install -c'
ac_cv_prog_CPP='gcc -E'
ac_cv_prog_ac_ct_CC=gcc
ac_cv_prog_cc_c89=
ac_cv_prog_cc_g=yes
ac_cv_prog_make_make_set=yes
ac_cv_type_off_t=yes
ac_cv_type_size_t=yes

## ----------------- ##
## Output variables. ##
## ----------------- ##

BTTV_HEAD=''
CC='gcc'
CFLAGS='-g -O2'
CPP='gcc -E'
CPPFLAGS=''
CXXFLAGS='-O3 -pipe -DDEBUG_LEVEL=0'
DEFS='-DHAVE_CONFIG_H'
DVFILES='v2'
DVFIRE_APPL='showdig'
DVFIRE_LIB='-lraw1394 -ldc1394'
DVFIRE_OBJS='XVDig1394.o XVFlea2G.o'
ECHO_C=''
ECHO_N='-n'
ECHO_T=''
EGREP='/bin/grep -E'
EXEEXT=''
EXT_MODULES=''
FRAMEGR_OBJS='XVPwc.o XVV4L2.o XVBt8x8.o Meteor.o'
GREP='/bin/grep'
INSTALL_DATA='${INSTALL} -m 644'
INSTALL_PROGRAM='${INSTALL}'
INSTALL_SCRIPT='${INSTALL}'
IPPINC='-I$(IPPROOT)/include'
IPPLIBS='-L$(IPPROOT)/sharedlib -lippi -lippcc'
IPPOBJS='XVAVI.o'
IPPTOOLS='XVStereoRectify.o'
LDFLAGS=''
LIBOBJS=''
LIBPTH='-lpthread'
LIBS='-lXxf86vm -lXext -lX11 -lpng '
LTLIBOBJS=''
OBJEXT='o'
PACKAGE_BUGREPORT=''
PACKAGE_NAME=''
PACKAGE_STRING=''
PACKAGE_TARNAME=''
PACKAGE_URL=''
PACKAGE_VERSION=''
PATH_SEPARATOR=':'
PROSILICA_APPL=''
PROSILICA_INCS=''
PROSILICA_LIBS=''
PROSILICA_OBJS=''
SET_MAKE=''
SHELL='/bin/bash'
VIDERE_APPL=''
VIDERE_INC=''
VIDERE_LIBS=''
VIDERE_MATL=''
VIDERE_OBJS=''
XMKMF=''
X_CFLAGS=''
X_EXTRA_LIBS=''
X_LIBS=''
X_PRE_LIBS=' -lSM -lICE'
ac_ct_CC='gcc'
bindir='${exec_prefix}/bin'
build_alias=''
datadir='${datarootdir}'
datarootdir='${prefix}/share'
docdir='${datarootdir}/doc/${PACKAGE}'
dvidir='${docdir}'
exec_prefix='${prefix}'
host_alias=''
htmldir='${docdir}'
includedir='${prefix}/include'
infodir='${datarootdir}/info'
libdir='${exec_prefix}/lib'
libexecdir='${exec_prefix}/libexec'
localedir='${datarootdir}/locale'
localstatedir='${prefix}/var'
mandir='${datarootdir}/man'
oldincludedir='/usr/include'
pdfdir='${docdir}'
prefix='/usr/local'
program_transform_name='s,x,x,'
psdir='${docdir}'
sbindir='${exec_prefix}/sbin'
sharedstatedir='${prefix}/com'
sysconfdir='${prefix}/etc'
target_alias=''

## ----------- ##
## confdefs.h. ##
## ----------- ##

/* confdefs.h */
#define PACKAGE_NAME ""
#define PACKAGE_TARNAME ""
#define PACKAGE_VERSION ""
#define PACKAGE_STRING ""
#define PACKAGE_BUGREPORT ""
#define PACKAGE_URL ""
#define STDC_HEADERS 1
#define HAVE_SYS_TYPES_H 1
#define HAVE_SYS_STAT_H 1
#define HAVE_STDLIB_H 1
#define HAVE_STRING_H 1
#define HAVE_MEMORY_H 1
#define HAVE_STRINGS_H 1
#define HAVE_INTTYPES_H 1
#define HAVE_STDINT_H 1
#define HAVE_UNISTD_H 1
#define HAVE_STDLIB_H 1
#define HAVE_UNISTD_H 1
#define HAVE_SYS_PARAM_H 1
#define HAVE_GETPAGESIZE 1
#define HAVE_MMAP 1
#define HAVE_GETTIMEOFDAY 1
#define STDC_HEADERS 1
#define HAVE_FCNTL_H 1
#define HAVE_SYS_IOCTL_H 1
#define HAVE_SYS_TIME_H 1
#define HAVE_UNISTD_H 1
#define HAVE_DV 1
#define HAVE_BTTV 1
#define TIME_WITH_SYS_TIME 1
#define HAVE_REMAP 1
#define HAVE_VIDEO1394_NEW 1
#define HAVE_IPP 1
#define HAVE_LIBPTHREAD 1
#define HAVE_LIBPNG 1
#define HAVE_LIBX11 1
#define HAVE_LIBXEXT 1
#define HAVE_LIBXXF86VM 1

configure: exit 0
